Library\Bee\artifacts\mvdfrm\Unity.VisualScripting.Core.ref.dll_D75DF4EA1AFE54F4.mvfrm
Library\Bee\artifacts\mvdfrm\UnityEditor.TestRunner.ref.dll_193EC4CE382CBFB3.mvfrm
Library\Bee\artifacts\mvdfrm\UnityEditor.UI.ref.dll_4C98D3F7040CD4F5.mvfrm
Library\Bee\artifacts\mvdfrm\UnityEngine.TestRunner.ref.dll_E55D0F7C63F01D9E.mvfrm
Library\Bee\artifacts\mvdfrm\UnityEngine.UI.ref.dll_08FEAA520A2EFD60.mvfrm
Library\Bee\artifacts\mvdfrm\Unity.Plastic.Antlr3.Runtime.dll_A1537CAD461D431B.mvfrm
Library\Bee\artifacts\mvdfrm\Unity.Plastic.Newtonsoft.Json.dll_5D67D74A61A1DEEA.mvfrm
Library\Bee\artifacts\mvdfrm\Unity.VisualScripting.IonicZip.dll_E029D2AAB1FEE6E2.mvfrm
Library\Bee\artifacts\mvdfrm\Unity.VisualScripting.YamlDotNet.dll_606B09BA1B7A4E3A.mvfrm
Library\Bee\artifacts\mvdfrm\Unity.VisualScripting.Antlr3.Runtime.dll_11D8309B4C435E59.mvfrm
Library\Bee\artifacts\mvdfrm\UnityEditor.Graphs.dll_EF038F3A327C824C.mvfrm
Library\Bee\artifacts\mvdfrm\UnityEditor.CoreModule.dll_3037E5DEA42C921A.mvfrm
Library\Bee\artifacts\mvdfrm\UnityEditor.DeviceSimulatorModule.dll_68410CAFAEC44CC7.mvfrm
Library\Bee\artifacts\mvdfrm\UnityEditor.DiagnosticsModule.dll_4035AF2C6CC57555.mvfrm
Library\Bee\artifacts\mvdfrm\UnityEditor.dll_8B30E057FC5FBC5B.mvfrm
Library\Bee\artifacts\mvdfrm\UnityEditor.GraphViewModule.dll_F9944D65E389C08C.mvfrm
Library\Bee\artifacts\mvdfrm\UnityEditor.PackageManagerUIModule.dll_79B5C8DC77AEC2F6.mvfrm
Library\Bee\artifacts\mvdfrm\UnityEditor.QuickSearchModule.dll_CB453039C59C71AE.mvfrm
Library\Bee\artifacts\mvdfrm\UnityEditor.SceneTemplateModule.dll_258CA18A9886D1EF.mvfrm
Library\Bee\artifacts\mvdfrm\UnityEditor.TextCoreFontEngineModule.dll_4AA92D1D58E3FE58.mvfrm
Library\Bee\artifacts\mvdfrm\UnityEditor.TextCoreTextEngineModule.dll_9291638EE867B776.mvfrm
Library\Bee\artifacts\mvdfrm\UnityEditor.UIBuilderModule.dll_4E1CFA82564239C0.mvfrm
Library\Bee\artifacts\mvdfrm\UnityEditor.UIElementsModule.dll_1D7E450C3AC00F16.mvfrm
Library\Bee\artifacts\mvdfrm\UnityEditor.UIElementsSamplesModule.dll_033AB5667E5FD5B7.mvfrm
Library\Bee\artifacts\mvdfrm\UnityEditor.UIServiceModule.dll_870F0BE53F7989DA.mvfrm
Library\Bee\artifacts\mvdfrm\UnityEditor.UnityConnectModule.dll_5158BCECC1304DD0.mvfrm
Library\Bee\artifacts\mvdfrm\UnityEngine.AccessibilityModule.dll_58320D2198FCF98C.mvfrm
Library\Bee\artifacts\mvdfrm\UnityEngine.AIModule.dll_F9548D835F6E212E.mvfrm
Library\Bee\artifacts\mvdfrm\UnityEngine.AndroidJNIModule.dll_9BC72DDF83DF7DEC.mvfrm
Library\Bee\artifacts\mvdfrm\UnityEngine.AnimationModule.dll_C819C98EBDE69532.mvfrm
Library\Bee\artifacts\mvdfrm\UnityEngine.ARModule.dll_B2C75286BC8B7FF7.mvfrm
Library\Bee\artifacts\mvdfrm\UnityEngine.AssetBundleModule.dll_0F2E632B280326A0.mvfrm
Library\Bee\artifacts\mvdfrm\UnityEngine.AudioModule.dll_61437C037CB459A4.mvfrm
Library\Bee\artifacts\mvdfrm\UnityEngine.ClothModule.dll_C82BD8FE56D13888.mvfrm
Library\Bee\artifacts\mvdfrm\UnityEngine.ClusterInputModule.dll_D0F5320272B82096.mvfrm
Library\Bee\artifacts\mvdfrm\UnityEngine.ClusterRendererModule.dll_6DEDCF211E7F5A4B.mvfrm
Library\Bee\artifacts\mvdfrm\UnityEngine.CoreModule.dll_5358B9314C31FD45.mvfrm
Library\Bee\artifacts\mvdfrm\UnityEngine.CrashReportingModule.dll_2CD8C6E3B1E30DFD.mvfrm
Library\Bee\artifacts\mvdfrm\UnityEngine.DirectorModule.dll_C4C938AA73E4F4A2.mvfrm
Library\Bee\artifacts\mvdfrm\UnityEngine.dll_BDD527305AD34940.mvfrm
Library\Bee\artifacts\mvdfrm\UnityEngine.DSPGraphModule.dll_CA1A9A13E645C5C3.mvfrm
Library\Bee\artifacts\mvdfrm\UnityEngine.GameCenterModule.dll_C61477FA4A206EDD.mvfrm
Library\Bee\artifacts\mvdfrm\UnityEngine.GIModule.dll_9190D690FB1D0948.mvfrm
Library\Bee\artifacts\mvdfrm\UnityEngine.GridModule.dll_30C9D51F6486933C.mvfrm
Library\Bee\artifacts\mvdfrm\UnityEngine.HotReloadModule.dll_496287949919B0B4.mvfrm
Library\Bee\artifacts\mvdfrm\UnityEngine.ImageConversionModule.dll_D9DFCCD1A0A4123F.mvfrm
Library\Bee\artifacts\mvdfrm\UnityEngine.IMGUIModule.dll_99A31B6A42E5ED85.mvfrm
Library\Bee\artifacts\mvdfrm\UnityEngine.InputLegacyModule.dll_A0737E49BFF4DC91.mvfrm
Library\Bee\artifacts\mvdfrm\UnityEngine.InputModule.dll_C7B943B3F2EC7E48.mvfrm
Library\Bee\artifacts\mvdfrm\UnityEngine.JSONSerializeModule.dll_B849965D98385A16.mvfrm
Library\Bee\artifacts\mvdfrm\UnityEngine.LocalizationModule.dll_0F41FC550A34138F.mvfrm
Library\Bee\artifacts\mvdfrm\UnityEngine.NVIDIAModule.dll_BFC09B406090BC51.mvfrm
Library\Bee\artifacts\mvdfrm\UnityEngine.ParticleSystemModule.dll_7FEB10301FF4998B.mvfrm
Library\Bee\artifacts\mvdfrm\UnityEngine.PerformanceReportingModule.dll_9BAEA24E24DE1704.mvfrm
Library\Bee\artifacts\mvdfrm\UnityEngine.Physics2DModule.dll_14BFB97F5EE38CC7.mvfrm
Library\Bee\artifacts\mvdfrm\UnityEngine.PhysicsModule.dll_5A652EC3BF0360F5.mvfrm
Library\Bee\artifacts\mvdfrm\UnityEngine.ProfilerModule.dll_F70F71E10D3E7BAF.mvfrm
Library\Bee\artifacts\mvdfrm\UnityEngine.RuntimeInitializeOnLoadManagerInitializerModule.dll_2435D31458410B90.mvfrm
Library\Bee\artifacts\mvdfrm\UnityEngine.ScreenCaptureModule.dll_D23143E2ACA48678.mvfrm
Library\Bee\artifacts\mvdfrm\UnityEngine.SharedInternalsModule.dll_5DF10BA717D20D8F.mvfrm
Library\Bee\artifacts\mvdfrm\UnityEngine.SpriteMaskModule.dll_AF40EA8A6B900457.mvfrm
Library\Bee\artifacts\mvdfrm\UnityEngine.SpriteShapeModule.dll_288F9085DDA55EAA.mvfrm
Library\Bee\artifacts\mvdfrm\UnityEngine.StreamingModule.dll_7CAEB6DF0D6E4C70.mvfrm
Library\Bee\artifacts\mvdfrm\UnityEngine.SubstanceModule.dll_5959CB2858C14A7E.mvfrm
Library\Bee\artifacts\mvdfrm\UnityEngine.SubsystemsModule.dll_19EE50EC39D7EC6A.mvfrm
Library\Bee\artifacts\mvdfrm\UnityEngine.TerrainModule.dll_74ABAA3294C1A9E3.mvfrm
Library\Bee\artifacts\mvdfrm\UnityEngine.TerrainPhysicsModule.dll_8065B90339379418.mvfrm
Library\Bee\artifacts\mvdfrm\UnityEngine.TextCoreFontEngineModule.dll_C908A8706BE1BD23.mvfrm
Library\Bee\artifacts\mvdfrm\UnityEngine.TextCoreTextEngineModule.dll_10F0DEE1FB657641.mvfrm
Library\Bee\artifacts\mvdfrm\UnityEngine.TextRenderingModule.dll_FB70B5ED63DC066D.mvfrm
Library\Bee\artifacts\mvdfrm\UnityEngine.TilemapModule.dll_13A811B3AC7E8AEC.mvfrm
Library\Bee\artifacts\mvdfrm\UnityEngine.TLSModule.dll_4438E5BF4D20EC89.mvfrm
Library\Bee\artifacts\mvdfrm\UnityEngine.UaaLAnalyticsModule.dll_461BE5BD3DECF19D.mvfrm
Library\Bee\artifacts\mvdfrm\UnityEngine.UIElementsModule.dll_1E2CB2543D042861.mvfrm
Library\Bee\artifacts\mvdfrm\UnityEngine.UIElementsNativeModule.dll_C42F7D71E9273318.mvfrm
Library\Bee\artifacts\mvdfrm\UnityEngine.UIModule.dll_F4C82BB0BBB526DA.mvfrm
Library\Bee\artifacts\mvdfrm\UnityEngine.UmbraModule.dll_DC18281C09DB0517.mvfrm
Library\Bee\artifacts\mvdfrm\UnityEngine.UNETModule.dll_E5FF011A9940F2BE.mvfrm
Library\Bee\artifacts\mvdfrm\UnityEngine.UnityAnalyticsModule.dll_9F8A80F9CC1BEB87.mvfrm
Library\Bee\artifacts\mvdfrm\UnityEngine.UnityConnectModule.dll_3EB840FBBBB84E7B.mvfrm
Library\Bee\artifacts\mvdfrm\UnityEngine.UnityCurlModule.dll_FB366AC02DFA871F.mvfrm
Library\Bee\artifacts\mvdfrm\UnityEngine.UnityTestProtocolModule.dll_BEFD6B58D85B2B0D.mvfrm
Library\Bee\artifacts\mvdfrm\UnityEngine.UnityWebRequestAssetBundleModule.dll_D34499B0BBB6DB98.mvfrm
Library\Bee\artifacts\mvdfrm\UnityEngine.UnityWebRequestAudioModule.dll_13AAF62CAB48E19C.mvfrm
Library\Bee\artifacts\mvdfrm\UnityEngine.UnityWebRequestModule.dll_EB7ED47BAB98ACBE.mvfrm
Library\Bee\artifacts\mvdfrm\UnityEngine.UnityWebRequestTextureModule.dll_6AEB24BBED4802F1.mvfrm
Library\Bee\artifacts\mvdfrm\UnityEngine.UnityWebRequestWWWModule.dll_DBB3243DEB2532AD.mvfrm
Library\Bee\artifacts\mvdfrm\UnityEngine.VehiclesModule.dll_3C8C3229EE0EC43D.mvfrm
Library\Bee\artifacts\mvdfrm\UnityEngine.VFXModule.dll_C5177E2E238E55F6.mvfrm
Library\Bee\artifacts\mvdfrm\UnityEngine.VideoModule.dll_864D006E3F467549.mvfrm
Library\Bee\artifacts\mvdfrm\UnityEngine.VirtualTexturingModule.dll_E8BC31E0C1D5B3A3.mvfrm
Library\Bee\artifacts\mvdfrm\UnityEngine.VRModule.dll_479A52365D6FAC52.mvfrm
Library\Bee\artifacts\mvdfrm\UnityEngine.WindModule.dll_C9A79459DD687BAE.mvfrm
Library\Bee\artifacts\mvdfrm\UnityEngine.XRModule.dll_7A59153AE6A9F9B0.mvfrm
Library\Bee\artifacts\mvdfrm\Unity.Android.Gradle.dll_E6B5FAC4CA1BE902.mvfrm
Library\Bee\artifacts\mvdfrm\Unity.Android.Types.dll_39E93BA717D88A5A.mvfrm
Library\Bee\artifacts\mvdfrm\UnityEditor.Android.Extensions.dll_955F174BE8F44A82.mvfrm
Library\Bee\artifacts\mvdfrm\UnityEditor.iOS.Extensions.Common.dll_68B210F77617D4DF.mvfrm
Library\Bee\artifacts\mvdfrm\UnityEditor.iOS.Extensions.dll_59F8A8F04EDDB3D6.mvfrm
Library\Bee\artifacts\mvdfrm\UnityEditor.iOS.Extensions.Xcode.dll_9679C7CD89FCF0DD.mvfrm
Library\Bee\artifacts\mvdfrm\UnityEditor.UWP.Extensions.dll_96711DBBC3E6AD11.mvfrm
Library\Bee\artifacts\mvdfrm\UnityEditor.WindowsStandalone.Extensions.dll_3CB2CA3306FA4B26.mvfrm